Supplementary materials
…
Posterior summary and diagnostic statistics

NHPP with PLP intensity function

Posterior mean, 95% credible interval, ESS, and \(\hat{R}\)

est_NHPP = broom::tidy(fit_NHPP, conf.int = T, rhat = T, ess = T)
est_NHPP

# A tibble: 27 x 7
   term    estimate std.error conf.low conf.high  rhat   ess
   <chr>      <dbl>     <dbl>    <dbl>     <dbl> <dbl> <int>
 1 mu0        2.01     0.203     1.60      2.43  1.00   1680
 2 sigma0     0.553    0.172     0.292     0.952 1.00   1260
 3 beta       1.27     0.0782    1.11      1.43  0.999  1428
 4 R1_K[1]    0.934    0.0943    0.755     1.13  1.00   1408
 5 R1_K[2]    0.270    0.0704    0.136     0.410 0.999  2573
 6 R1_K[3]    0.212    0.0496    0.119     0.314 1.00   1880
 7 R0[1]      1.64     0.123     1.39      1.88  0.999  1520
 8 R0[2]      1.69     0.142     1.41      1.96  1.00   2186
 9 R0[3]      2.89     0.295     2.35      3.50  0.999  1941
10 R0[4]      1.95     0.176     1.62      2.30  0.999  3059
#  with 17 more rows
…
JPLP

Posterior mean, 95% credible interval, ESS, and \(\hat{R}\)

est_JPLP = broom::tidy(fit_JPLP, conf.int = T, rhat = T, ess = T)
est_JPLP

# A tibble: 28 x 7
   term    estimate std.error conf.low conf.high  rhat   ess
   <chr>      <dbl>     <dbl>    <dbl>     <dbl> <dbl> <int>
 1 mu0        2.12     0.225    1.70       2.60   1.00   948
 2 sigma0     0.540    0.181    0.273      0.966  1.00  1173
 3 beta       1.18     0.117    0.962      1.42   1.00   697
 4 kappa      0.806    0.0813   0.654      0.968  1.01   671
 5 R1_K[1]    1.01     0.132    0.769      1.29   1.01   551
 6 R1_K[2]    0.220    0.0912   0.0504     0.404  1.00  1349
 7 R1_K[3]    0.239    0.0678   0.112      0.379  1.00  1256
 8 R0[1]      1.78     0.184    1.44       2.14   1.00   969
 9 R0[2]      2.01     0.222    1.61       2.49   1.00   795
10 R0[3]      2.58     0.289    2.06       3.17   1.00   989
#  with 18 more rows
…
